{
    "jet_collection": "AntiKt10LCTopoTrimmedPtFrac5SmallR20Jets",
    "calibration": {},
    "selection": {
        "minimum_jet_pt": 250000,
        "maximum_jet_absolute_eta": 2.0,
        "jet_cleaning": "event"
    },
    "vertex_collection": "PrimaryVertices",
    "dl2_configs": [],
    "variables": {
        "btag": {
            "jet_int_variables": [
                "jetPtRank",
                "GhostBHadronsFinalCount",
                "GhostHBosonsCount",
                "GhostWBosonsCount",
                "GhostZBosonsCount",
                "GhostTQuarksFinalCount",
                "GhostTrackCount",
                "n_subjets"
            ],
            "jet_floats": [
                "pt",
                "eta",
                "mass",
                "energy",
                "GhostBHadronsFinalPt",
                "GhostHBosonsPt",
                "GhostWBosonsPt",
                "GhostZBosonsPt",
                "GhostTQuarksFinalPt"
            ],
            "event": [
                "mcEventWeight",
                "eventNumber",
                "averageInteractionsPerCrossing",
                "actualInteractionsPerCrossing",
                "nPrimaryVertices",
                "beamSpotWeight"
            ]
        },
        "default_mapping": {
            "file": "fragments/default-mapping.json"
        }
    },
    "tracks": [
        {
            "n_to_save": 80,
            "selection": {
                "file": "fragments/ip3d-loose-track-cuts.json"
            },
            "sort_order": "d0_significance",
            "btagging_link": "",
            "input_name": "GhostTrack",
            "output_name": "tracks",
            "variables": {
                "file": "fragments/single-btag-track-variables.json",
                "ints": [
                    "truthOriginLabel",
                    "truthVertexIndex"
                ],
                "chars": [
                    "leptonID"
                ]
            },
            "ip_prefix": "btagIp_"
        }
    ],
    "truths": [],
    "subjets": [
        {
            "input_name": "GhostAntiKtVR30Rmax4Rmin02PV0TrackJets",
            "output_name": "subjets",
            "btagging_link": "btaggingLink",
            "min_jet_pt": 7000,
            "max_abs_eta": 2.5,
            "num_const": 0,
            "n_subjets_to_save": 3,
            "variables": {
                "file": "fragments/subjet-variables.json"
            }
            
        }
    ],
    "decorate": {
        "jet_aug": false,
        "btag_jes": false,
        "soft_muon": false,
        "track_truth_info": false,
        "track_sv_info": false,
        "track_lepton_id": false,
        "lepton_decay_label": false
    },
    "btagging_link": ""
}
