{
    "jet_collection": "tempEmtopoJets",
    "calibration": {},
    "selection": {
        "minimum_jet_pt": 20000,
        "maximum_jet_absolute_eta": 2.5
    },
    "vertex_collection": "HLT_IDVertex_FS",
    "dl2_configs": [
        {
            "nn_file_path": "BTagging/20220211trig/fastDips/antikt4empflow/network.json",
            "where": "jet",
            "remapping": {
                "BTagTrackToJetAssociator": "superTracks10GeV",
                "btagIp_": "poboyIp_",
                "fastDIPSnoPV20220211_pb": "fastDipsTracks10GeV_pb",
                "fastDIPSnoPV20220211_pc": "fastDipsTracks10GeV_pc",
                "fastDIPSnoPV20220211_pu": "fastDipsTracks10GeV_pu",
                "invalidIp": ""
            }
        },
        {
            "nn_file_path": "BTagging/20220211trig/fastDips/antikt4empflow/network.json",
            "where": "jet",
            "remapping": {
                "BTagTrackToJetAssociator": "superTracks20GeV",
                "btagIp_": "poboyIp_",
                "fastDIPSnoPV20220211_pb": "fastDipsTracks20GeV_pb",
                "fastDIPSnoPV20220211_pc": "fastDipsTracks20GeV_pc",
                "fastDIPSnoPV20220211_pu": "fastDipsTracks20GeV_pu",
                "invalidIp": ""
            }
        },
        {
            "nn_file_path": "BTagging/20220211trig/fastDips/antikt4empflow/network.json",
            "where": "jet",
            "remapping": {
                "BTagTrackToJetAssociator": "superTracksFixedCone",
                "btagIp_": "poboyIp_",
                "fastDIPSnoPV20220211_pb": "fastDipsTracksFixedCone_pb",
                "fastDIPSnoPV20220211_pc": "fastDipsTracksFixedCone_pc",
                "fastDIPSnoPV20220211_pu": "fastDipsTracksFixedCone_pu",
                "invalidIp": ""
            }
        }
    ],
    "variables": {
        "btag": {
            "jet_int_variables": [
                "HadronConeExclTruthLabelID",
                "HadronConeExclExtendedTruthLabelID",
                "jetPtRank",
                "n_tracks",
                "n_tracks_fixed_cone",
                "n_tracks_10gev",
                "n_tracks_20gev"
            ],
            "jet_floats": [
                "HadronConeExclTruthLabelPt",
                "pt"
            ],
            "jet_halves": [
                "eta",
                "fastDips_pb",
                "fastDips_pc",
                "fastDips_pu",
                "fastDipsTracks10GeV_pb",
                "fastDipsTracks10GeV_pc",
                "fastDipsTracks10GeV_pu",
                "fastDipsTracks20GeV_pb",
                "fastDipsTracks20GeV_pc",
                "fastDipsTracks20GeV_pu",
                "fastDipsTracksFixedCone_pb",
                "fastDipsTracksFixedCone_pc",
                "fastDipsTracksFixedCone_pu"
            ]
        },
        "default_mapping": {
            "file": "fragments/default-mapping.json"
        }
    },
    "tracks": [
        {
            "file": "fragments/tracks-relative-to-beamspot.json",
            "input_name": "superTracks",
            "output_name": "tracks"
        },
        {
            "file": "fragments/tracks-relative-to-beamspot.json",
            "input_name": "superTracksFixedCone",
            "output_name": "tracks_fixed_cone"
        },
        {
            "file": "fragments/tracks-relative-to-beamspot.json",
            "input_name": "superTracks10GeV",
            "output_name": "tracks_10gev"
        },
        {
            "file": "fragments/tracks-relative-to-beamspot.json",
            "input_name": "superTracks20GeV",
            "output_name": "tracks_20gev"
        },
        {
            "file": "fragments/tracks-relative-to-beamspot.json",
            "input_name": "TracksForMinimalJetTag",
            "output_name": "tracks_associated"
        }
    ],
    "truths": [
        {
            "file": "fragments/overlap-leptons.json"
        }
    ],
    "decorate": {
        "jet_aug": false,
        "btag_jes": false,
        "soft_muon": false,
        "track_truth_info": false,
        "track_sv_info": false,
        "track_lepton_id": false
    },
    "btagging_link": ""
}
